[{
  "_id": {
    "$oid": "5ef9a89b4ebd6500177f88ed"
  },
  "authorize_id": {
    "$oid": "5edc8be05da01e2b046249fc"
  },
  "owner_id": {
    "$oid": "5ee19dba89c6640017826e20"
  },
  "box_id": {
    "$oid": "5edb64e91c898b19f86fc06c"
  },
  "station_id": {
    "$oid": "5edb615fa6568321887ed05a"
  },
  "limit": "unlimited",
  "action": "revoke",
  "authorize_time": "Sat Jun 20 2020 22:33:11 GMT+0700 (Indochina Time)",
  "nonce": 353,
  "timestamp": 1592667197920,
  "previousHash": "0",
  "Hash": "0000998e23d30d560fec5775b597ea83697ec3eea6fae8bcdef8acb7034d1139",
  "author": "node1",
  "index": 0,
  "__v": 0
},{
  "_id": {
    "$oid": "5ef9aa1c60fb7100176bd83a"
  },
  "authorize_id": {
    "$oid": "5edbe2bd4c411523d40f7135"
  },
  "owner_id": {
    "$oid": "5ee19dba89c6640017826e20"
  },
  "box_id": {
    "$oid": "5edb64e91c898b19f86fc06d"
  },
  "station_id": {
    "$oid": "5edb615fa6568321887ed05a"
  },
  "limit": "unlimited",
  "action": "authorize",
  "authorize_time": "Sat Jun 20 2020 22:35:04 GMT+0700 (Indochina Time)",
  "nonce": 7607,
  "timestamp": 1592667310625,
  "previousHash": "0000998e23d30d560fec5775b597ea83697ec3eea6fae8bcdef8acb7034d1139",
  "Hash": "00008a3db7eac8dc7ddfc3f5e4a67f1f10fd0ce191e191d9ab83180ab25f39b0",
  "author": "node2",
  "index": 1,
  "__v": 0
},{
  "_id": {
    "$oid": "5ef9ab44376f0f001731aaab"
  },
  "authorize_id": {
    "$oid": "5edbe2bd4c411523d40f7135"
  },
  "owner_id": {
    "$oid": "5ee19dba89c6640017826e20"
  },
  "box_id": {
    "$oid": "5edb64e91c898b19f86fc06d"
  },
  "station_id": {
    "$oid": "5edb615fa6568321887ed05a"
  },
  "limit": "unlimited",
  "action": "revoke",
  "authorize_time": "Sat Jun 20 2020 22:46:21 GMT+0700 (Indochina Time)",
  "nonce": 19761,
  "timestamp": 1592667993849,
  "previousHash": "00008a3db7eac8dc7ddfc3f5e4a67f1f10fd0ce191e191d9ab83180ab25f39b0",
  "Hash": "000043dbe9975c64747731a774c466c0121ef7d6b12508b6fb29b5a8922f1c32",
  "author": "node2",
  "index": 2,
  "__v": 0
},{
  "_id": {
    "$oid": "5ef9ab44376f0f001731aaac"
  },
  "authorize_id": {
    "$oid": "5edc8be05da01e2b046249fc"
  },
  "owner_id": {
    "$oid": "5ee19dba89c6640017826e20"
  },
  "box_id": {
    "$oid": "5edb64e91c898b19f86fc06c"
  },
  "station_id": {
    "$oid": "5edb615fa6568321887ed05a"
  },
  "limit": "10",
  "action": "authorize",
  "authorize_time": "Sat Jun 20 2020 22:46:42 GMT+0700 (Indochina Time)",
  "nonce": 1088,
  "timestamp": 1592668027432,
  "previousHash": "000043dbe9975c64747731a774c466c0121ef7d6b12508b6fb29b5a8922f1c32",
  "Hash": "00000afa4a5c703285eb51bf01e7daeae3bf302b1eafcfcc5cc8833dd2801b46",
  "author": "node2",
  "index": 3,
  "__v": 0
},{
  "_id": {
    "$oid": "5ef9ab44376f0f001731aaad"
  },
  "authorize_id": {
    "$oid": "5ee19dba89c6640017826e20"
  },
  "owner_id": {
    "$oid": "5edbe2bd4c411523d40f7135"
  },
  "box_id": {
    "$oid": "5edb651b5550a40068ab249f"
  },
  "station_id": {
    "$oid": "5edb615fa6568321887ed060"
  },
  "limit": "2",
  "action": "revoke",
  "authorize_time": "Mon Jun 29 2020 15:49:50 GMT+0700 (Indochina Time)",
  "nonce": 31928,
  "timestamp": 1593420597768,
  "previousHash": "00000afa4a5c703285eb51bf01e7daeae3bf302b1eafcfcc5cc8833dd2801b46",
  "Hash": "0000624f6ff35c40506c37ded476f94d0b3aab339ea7d09e0d12fd9e65737196",
  "author": "node2",
  "index": 4,
  "__v": 0
},{
  "_id": {
    "$oid": "5ef9ab974fc3810017d771b8"
  },
  "authorize_id": {
    "$oid": "5ee19dba89c6640017826e20"
  },
  "owner_id": {
    "$oid": "5edbe2bd4c411523d40f7135"
  },
  "box_id": {
    "$oid": "5edb651b5550a40068ab24a0"
  },
  "station_id": {
    "$oid": "5edb615fa6568321887ed060"
  },
  "limit": "unlimited",
  "action": "authorize",
  "authorize_time": "Mon Jun 29 2020 15:51:15 GMT+0700 (Indochina Time)",
  "nonce": 72731,
  "timestamp": 1593420684211,
  "previousHash": "0000624f6ff35c40506c37ded476f94d0b3aab339ea7d09e0d12fd9e65737196",
  "Hash": "00006701f4459b8edf5405c8c60f710efeb61a921599e13f12eda6c94abf9544",
  "author": "node2",
  "index": 5,
  "__v": 0
},{
  "_id": {
    "$oid": "5ef9abc28c09be00178192bb"
  },
  "authorize_id": {
    "$oid": "5ee19dba89c6640017826e20"
  },
  "owner_id": {
    "$oid": "5edbe2bd4c411523d40f7135"
  },
  "box_id": {
    "$oid": "5edb651b5550a40068ab249f"
  },
  "station_id": {
    "$oid": "5edb615fa6568321887ed060"
  },
  "limit": "unlimited",
  "action": "authorize",
  "authorize_time": "Mon Jun 29 2020 15:52:01 GMT+0700 (Indochina Time)",
  "nonce": 2963,
  "timestamp": 1593420727444,
  "previousHash": "00006701f4459b8edf5405c8c60f710efeb61a921599e13f12eda6c94abf9544",
  "Hash": "000025d7ee9431d17586100fb9eaf265a86b2c488823a326c9402c50d12e329f",
  "author": "node1",
  "index": 6,
  "__v": 0
},{
  "_id": {
    "$oid": "5ef9abf90889f0001749795f"
  },
  "authorize_id": {
    "$oid": "5ee19dba89c6640017826e20"
  },
  "owner_id": {
    "$oid": "5edbe2bd4c411523d40f7135"
  },
  "box_id": {
    "$oid": "5edb651b5550a40068ab24a0"
  },
  "station_id": {
    "$oid": "5edb615fa6568321887ed060"
  },
  "limit": "unlimited",
  "action": "revoke",
  "authorize_time": "Mon Jun 29 2020 15:52:52 GMT+0700 (Indochina Time)",
  "nonce": 36389,
  "timestamp": 1593420782941,
  "previousHash": "000025d7ee9431d17586100fb9eaf265a86b2c488823a326c9402c50d12e329f",
  "Hash": "00003aec6ba64e7d4656e139bb1f6dfacff460835abd146f9698fc22f71df62b",
  "author": "node2",
  "index": 7,
  "__v": 0
},{
  "_id": {
    "$oid": "5ef9ac285bf4050017498208"
  },
  "authorize_id": {
    "$oid": "5ee19dba89c6640017826e20"
  },
  "owner_id": {
    "$oid": "5edbe2bd4c411523d40f7135"
  },
  "box_id": {
    "$oid": "5edb651b5550a40068ab249f"
  },
  "station_id": {
    "$oid": "5edb615fa6568321887ed060"
  },
  "limit": "unlimited",
  "action": "revoke",
  "authorize_time": "Mon Jun 29 2020 15:52:52 GMT+0700 (Indochina Time)",
  "nonce": 60793,
  "timestamp": 1593420829878,
  "previousHash": "00003aec6ba64e7d4656e139bb1f6dfacff460835abd146f9698fc22f71df62b",
  "Hash": "00007fd0d2991f2e30dfbe37adbe3538ca6e406e9004313eaad8276b966ddcd6",
  "author": "node2",
  "index": 8,
  "__v": 0
},{
  "_id": {
    "$oid": "5ef9adc277cbe900171365fb"
  },
  "authorize_id": {
    "$oid": "5ee19dba89c6640017826e20"
  },
  "owner_id": {
    "$oid": "5edbe2bd4c411523d40f7135"
  },
  "box_id": {
    "$oid": "5edb651b5550a40068ab249f"
  },
  "station_id": {
    "$oid": "5edb615fa6568321887ed060"
  },
  "limit": "4",
  "action": "authorize",
  "authorize_time": "Mon Jun 29 2020 15:59:56 GMT+0700 (Indochina Time)",
  "nonce": 42986,
  "timestamp": 1593421250615,
  "previousHash": "00007fd0d2991f2e30dfbe37adbe3538ca6e406e9004313eaad8276b966ddcd6",
  "Hash": "0000bcfda2e71405e2ac8e152dbbe7a08718323c0786dcba04faa9c8926e7c2b",
  "author": "main",
  "index": 9,
  "__v": 0
},{
  "_id": {
    "$oid": "5ef9ae33c398450017a56dc9"
  },
  "authorize_id": {
    "$oid": "5ee19dba89c6640017826e20"
  },
  "owner_id": {
    "$oid": "5edbe2bd4c411523d40f7135"
  },
  "box_id": {
    "$oid": "5edb651b5550a40068ab249f"
  },
  "station_id": {
    "$oid": "5edb615fa6568321887ed060"
  },
  "limit": "4",
  "action": "revoke",
  "authorize_time": "Mon Jun 29 2020 16:02:13 GMT+0700 (Indochina Time)",
  "nonce": 12948,
  "timestamp": 1593421350655,
  "previousHash": "0000bcfda2e71405e2ac8e152dbbe7a08718323c0786dcba04faa9c8926e7c2b",
  "Hash": "00007b61485d5c5cd873b30a772fed8560975e28d25ce5fb9021a4fd944c6368",
  "author": "node1",
  "index": 10,
  "__v": 0
},{
  "_id": {
    "$oid": "5ef9bc59d6448b0017f0484f"
  },
  "authorize_id": {
    "$oid": "5ee19dba89c6640017826e20"
  },
  "owner_id": {
    "$oid": "5edbe2bd4c411523d40f7135"
  },
  "box_id": {
    "$oid": "5edb651b5550a40068ab249f"
  },
  "station_id": {
    "$oid": "5edb615fa6568321887ed060"
  },
  "limit": "unlimited",
  "action": "authorize",
  "authorize_time": "Mon Jun 29 2020 17:02:52 GMT+0700 (Indochina Time)",
  "nonce": 14625,
  "timestamp": 1593424985660,
  "previousHash": "00007b61485d5c5cd873b30a772fed8560975e28d25ce5fb9021a4fd944c6368",
  "Hash": "00005bd2a3e6dd7b554135742d65a40957c94bcd11427c7148602e97f5589357",
  "author": "main",
  "index": 11,
  "__v": 0
},{
  "_id": {
    "$oid": "5ef9bd0c96e4180017bb496d"
  },
  "authorize_id": {
    "$oid": "5ee19dba89c6640017826e20"
  },
  "owner_id": {
    "$oid": "5edbe2bd4c411523d40f7135"
  },
  "box_id": {
    "$oid": "5edb651b5550a40068ab249f"
  },
  "station_id": {
    "$oid": "5edb615fa6568321887ed060"
  },
  "limit": "unlimited",
  "action": "revoke",
  "authorize_time": "Mon Jun 29 2020 17:05:43 GMT+0700 (Indochina Time)",
  "nonce": 96331,
  "timestamp": 1593425164022,
  "previousHash": "00005bd2a3e6dd7b554135742d65a40957c94bcd11427c7148602e97f5589357",
  "Hash": "00001b51024ac23214a7fbc8c60b55912ad85d268312fcd6e2e423586dd25937",
  "author": "main",
  "index": 12,
  "__v": 0
},{
  "_id": {
    "$oid": "5efaf58f6810ae0017314a7f"
  },
  "authorize_id": {
    "$oid": "5ee19dba89c6640017826e20"
  },
  "owner_id": {
    "$oid": "5edbe2bd4c411523d40f7135"
  },
  "box_id": {
    "$oid": "5edb651b5550a40068ab249f"
  },
  "station_id": {
    "$oid": "5edb615fa6568321887ed060"
  },
  "limit": "1",
  "action": "authorize",
  "authorize_time": "Tue Jun 30 2020 15:19:16 GMT+0700 (Indochina Time)",
  "nonce": 2917,
  "timestamp": 1593505167085,
  "previousHash": "00001b51024ac23214a7fbc8c60b55912ad85d268312fcd6e2e423586dd25937",
  "Hash": "000006671c8a8c20e1937688f793d9f06ec2ff66b614b8a6f4d68757fa376855",
  "author": "main",
  "index": 13,
  "__v": 0
},{
  "_id": {
    "$oid": "5efbf01b9b022e0017b416db"
  },
  "authorize_id": {
    "$oid": "5ee19dba89c6640017826e20"
  },
  "owner_id": {
    "$oid": "5edbe2bd4c411523d40f7135"
  },
  "box_id": {
    "$oid": "5edb651b5550a40068ab249f"
  },
  "station_id": {
    "$oid": "5edb615fa6568321887ed060"
  },
  "limit": "1",
  "action": "revoke",
  "authorize_time": "Wed Jul 01 2020 09:08:15 GMT+0700 (Indochina Time)",
  "nonce": 16301,
  "timestamp": 1593569307650,
  "previousHash": "000006671c8a8c20e1937688f793d9f06ec2ff66b614b8a6f4d68757fa376855",
  "Hash": "000001cc5d134d6d866e5a98ddc2e26f03af3f19e98ba5f6662213494c87d102",
  "author": "main",
  "index": 14,
  "__v": 0
},{
  "_id": {
    "$oid": "5eff305b4cb33f0017a74a8c"
  },
  "authorize_id": {
    "$oid": "5ef647e4bc949a14dcdbec70"
  },
  "owner_id": {
    "$oid": "5edbe2bd4c411523d40f7135"
  },
  "box_id": {
    "$oid": "5edb651b5550a40068ab249f"
  },
  "station_id": {
    "$oid": "5edb615fa6568321887ed060"
  },
  "limit": "unlimited",
  "action": "authorize",
  "authorize_time": "Fri Jul 03 2020 20:19:12 GMT+0700 (Indochina Time)",
  "nonce": 4300,
  "timestamp": 1593782363816,
  "previousHash": "000001cc5d134d6d866e5a98ddc2e26f03af3f19e98ba5f6662213494c87d102",
  "Hash": "0000cb380a0bf5857c0f71d4268b0eea52703d64ebe7cb8f1b1567a8d3b467c6",
  "author": "main",
  "index": 15,
  "__v": 0
},{
  "_id": {
    "$oid": "5eff310f07744600173cf857"
  },
  "authorize_id": {
    "$oid": "5ef647e4bc949a14dcdbec70"
  },
  "owner_id": {
    "$oid": "5edbe2bd4c411523d40f7135"
  },
  "box_id": {
    "$oid": "5edb651b5550a40068ab249f"
  },
  "station_id": {
    "$oid": "5edb615fa6568321887ed060"
  },
  "limit": "unlimited",
  "action": "revoke",
  "authorize_time": "Fri Jul 03 2020 20:22:12 GMT+0700 (Indochina Time)",
  "nonce": 30432,
  "timestamp": 1593782543820,
  "previousHash": "0000cb380a0bf5857c0f71d4268b0eea52703d64ebe7cb8f1b1567a8d3b467c6",
  "Hash": "00007f57f3e591208e35b824bcdf372a84c2d0a9d60d60aca253923202e08e24",
  "author": "main",
  "index": 16,
  "__v": 0
},{
  "_id": {
    "$oid": "5eff313607744600173cf858"
  },
  "authorize_id": {
    "$oid": "5ef647e4bc949a14dcdbec70"
  },
  "owner_id": {
    "$oid": "5edbe2bd4c411523d40f7135"
  },
  "box_id": {
    "$oid": "5edb651b5550a40068ab249f"
  },
  "station_id": {
    "$oid": "5edb615fa6568321887ed060"
  },
  "limit": "unlimited",
  "action": "authorize",
  "authorize_time": "Fri Jul 03 2020 20:22:37 GMT+0700 (Indochina Time)",
  "nonce": 60020,
  "timestamp": 1593782582658,
  "previousHash": "00007f57f3e591208e35b824bcdf372a84c2d0a9d60d60aca253923202e08e24",
  "Hash": "000087710c241fc9ebec1be07daf7391b3e48ed1b1ba7cdf5bb767f05e5c30ca",
  "author": "main",
  "index": 17,
  "__v": 0
},{
  "_id": {
    "$oid": "5eff336e2b8e3f0017aed3c2"
  },
  "authorize_id": {
    "$oid": "5ef647e4bc949a14dcdbec70"
  },
  "owner_id": {
    "$oid": "5edbe2bd4c411523d40f7135"
  },
  "box_id": {
    "$oid": "5edb651b5550a40068ab249f"
  },
  "station_id": {
    "$oid": "5edb615fa6568321887ed060"
  },
  "limit": "unlimited",
  "action": "revoke",
  "authorize_time": "Fri Jul 03 2020 20:32:18 GMT+0700 (Indochina Time)",
  "nonce": 34432,
  "timestamp": 1593783150559,
  "previousHash": "000087710c241fc9ebec1be07daf7391b3e48ed1b1ba7cdf5bb767f05e5c30ca",
  "Hash": "0000c2ac7f6c98eca16b85fcbb37f5b67d8d0c2e7266fbcf2f9eb694ef664319",
  "author": "main",
  "index": 18,
  "__v": 0
},{
  "_id": {
    "$oid": "5eff33932b8e3f0017aed3c3"
  },
  "authorize_id": {
    "$oid": "5ef647e4bc949a14dcdbec70"
  },
  "owner_id": {
    "$oid": "5edbe2bd4c411523d40f7135"
  },
  "box_id": {
    "$oid": "5edb651b5550a40068ab249f"
  },
  "station_id": {
    "$oid": "5edb615fa6568321887ed060"
  },
  "limit": "unlimited",
  "action": "authorize",
  "authorize_time": "Fri Jul 03 2020 20:32:32 GMT+0700 (Indochina Time)",
  "nonce": 15960,
  "timestamp": 1593783187762,
  "previousHash": "0000c2ac7f6c98eca16b85fcbb37f5b67d8d0c2e7266fbcf2f9eb694ef664319",
  "Hash": "00001fb1587007b8923fd633fd7eb73a83e4e2ddad6edf949de1c6af207e41d7",
  "author": "main",
  "index": 19,
  "__v": 0
},{
  "_id": {
    "$oid": "5eff33d55596b9001733f166"
  },
  "authorize_id": {
    "$oid": "5ef647e4bc949a14dcdbec70"
  },
  "owner_id": {
    "$oid": "5edbe2bd4c411523d40f7135"
  },
  "box_id": {
    "$oid": "5edb651b5550a40068ab249f"
  },
  "station_id": {
    "$oid": "5edb615fa6568321887ed060"
  },
  "limit": "unlimited",
  "action": "revoke",
  "authorize_time": "Fri Jul 03 2020 20:34:02 GMT+0700 (Indochina Time)",
  "nonce": 6768,
  "timestamp": 1593783253135,
  "previousHash": "00001fb1587007b8923fd633fd7eb73a83e4e2ddad6edf949de1c6af207e41d7",
  "Hash": "00007f5233f85463cac61495b98eb6c7d76cada446bd1463171cdcb4a3d7815e",
  "author": "main",
  "index": 20,
  "__v": 0
},{
  "_id": {
    "$oid": "5eff33fa5596b9001733f167"
  },
  "authorize_id": {
    "$oid": "5ef647e4bc949a14dcdbec70"
  },
  "owner_id": {
    "$oid": "5edbe2bd4c411523d40f7135"
  },
  "box_id": {
    "$oid": "5edb651b5550a40068ab249f"
  },
  "station_id": {
    "$oid": "5edb615fa6568321887ed060"
  },
  "limit": "unlimited",
  "action": "authorize",
  "authorize_time": "Fri Jul 03 2020 20:34:15 GMT+0700 (Indochina Time)",
  "nonce": 21226,
  "timestamp": 1593783290326,
  "previousHash": "00007f5233f85463cac61495b98eb6c7d76cada446bd1463171cdcb4a3d7815e",
  "Hash": "000010d687a7222cbee922a1c90562c37d4b3a9f5351f56246dd22e1d039c383",
  "author": "main",
  "index": 21,
  "__v": 0
},{
  "_id": {
    "$oid": "5eff35e2c35005001725d55b"
  },
  "authorize_id": {
    "$oid": "5ef647e4bc949a14dcdbec70"
  },
  "owner_id": {
    "$oid": "5edbe2bd4c411523d40f7135"
  },
  "box_id": {
    "$oid": "5edb651b5550a40068ab249f"
  },
  "station_id": {
    "$oid": "5edb615fa6568321887ed060"
  },
  "limit": "unlimited",
  "action": "revoke",
  "authorize_time": "Fri Jul 03 2020 20:42:48 GMT+0700 (Indochina Time)",
  "nonce": 663,
  "timestamp": 1593783778785,
  "previousHash": "000010d687a7222cbee922a1c90562c37d4b3a9f5351f56246dd22e1d039c383",
  "Hash": "00001408ea6b802c2261b95d9b1175121248fe8c221f4e1167acafd71b4cfe44",
  "author": "main",
  "index": 22,
  "__v": 0
},{
  "_id": {
    "$oid": "5eff3616889d9a00179b5676"
  },
  "authorize_id": {
    "$oid": "5ef647e4bc949a14dcdbec70"
  },
  "owner_id": {
    "$oid": "5edbe2bd4c411523d40f7135"
  },
  "box_id": {
    "$oid": "5edb651b5550a40068ab249f"
  },
  "station_id": {
    "$oid": "5edb615fa6568321887ed060"
  },
  "limit": "unlimited",
  "action": "authorize",
  "authorize_time": "Fri Jul 03 2020 20:43:38 GMT+0700 (Indochina Time)",
  "nonce": 16921,
  "timestamp": 1593783830412,
  "previousHash": "00001408ea6b802c2261b95d9b1175121248fe8c221f4e1167acafd71b4cfe44",
  "Hash": "0000a422744ddd65f71f260b9706160eee7772b7efe31b715a73d02fa1913f13",
  "author": "main",
  "index": 23,
  "__v": 0
},{
  "_id": {
    "$oid": "5eff366f92e23900172fcf70"
  },
  "authorize_id": {
    "$oid": "5ef647e4bc949a14dcdbec70"
  },
  "owner_id": {
    "$oid": "5edbe2bd4c411523d40f7135"
  },
  "box_id": {
    "$oid": "5edb651b5550a40068ab249f"
  },
  "station_id": {
    "$oid": "5edb615fa6568321887ed060"
  },
  "limit": "unlimited",
  "action": "revoke",
  "authorize_time": "Fri Jul 03 2020 20:45:04 GMT+0700 (Indochina Time)",
  "nonce": 54452,
  "timestamp": 1593783919943,
  "previousHash": "0000a422744ddd65f71f260b9706160eee7772b7efe31b715a73d02fa1913f13",
  "Hash": "00009db66a5c709d055a5688df65cefae04953a5f7dbf42fea5f5b159cab60dc",
  "author": "main",
  "index": 24,
  "__v": 0
},{
  "_id": {
    "$oid": "5eff36c7665b9000170a0ff5"
  },
  "authorize_id": {
    "$oid": "5ef647e4bc949a14dcdbec70"
  },
  "owner_id": {
    "$oid": "5edbe2bd4c411523d40f7135"
  },
  "box_id": {
    "$oid": "5edb651b5550a40068ab249f"
  },
  "station_id": {
    "$oid": "5edb615fa6568321887ed060"
  },
  "limit": "unlimited",
  "action": "authorize",
  "authorize_time": "Fri Jul 03 2020 20:46:16 GMT+0700 (Indochina Time)",
  "nonce": 447239,
  "timestamp": 1593784007699,
  "previousHash": "00009db66a5c709d055a5688df65cefae04953a5f7dbf42fea5f5b159cab60dc",
  "Hash": "00002d8242af6c20e3975be7dbb0b85172b879ffef5edf6030e337e628a6ee99",
  "author": "main",
  "index": 25,
  "__v": 0
},{
  "_id": {
    "$oid": "5eff36ed665b9000170a0ff6"
  },
  "authorize_id": {
    "$oid": "5ef647e4bc949a14dcdbec70"
  },
  "owner_id": {
    "$oid": "5edbe2bd4c411523d40f7135"
  },
  "box_id": {
    "$oid": "5edb651b5550a40068ab24a0"
  },
  "station_id": {
    "$oid": "5edb615fa6568321887ed060"
  },
  "limit": "3",
  "action": "authorize",
  "authorize_time": "Fri Jul 03 2020 20:46:24 GMT+0700 (Indochina Time)",
  "nonce": 45417,
  "timestamp": 1593784045919,
  "previousHash": "00002d8242af6c20e3975be7dbb0b85172b879ffef5edf6030e337e628a6ee99",
  "Hash": "00007efdaf59c5140330d137f8c88d5b81d35339eca6fceb4543606b2acd97d0",
  "author": "main",
  "index": 26,
  "__v": 0
},{
  "_id": {
    "$oid": "5eff3717665b9000170a0ff7"
  },
  "authorize_id": {
    "$oid": "5ef647e4bc949a14dcdbec70"
  },
  "owner_id": {
    "$oid": "5edbe2bd4c411523d40f7135"
  },
  "box_id": {
    "$oid": "5edb651b5550a40068ab249f"
  },
  "station_id": {
    "$oid": "5edb615fa6568321887ed060"
  },
  "limit": "unlimited",
  "action": "revoke",
  "authorize_time": "Fri Jul 03 2020 20:47:32 GMT+0700 (Indochina Time)",
  "nonce": 104164,
  "timestamp": 1593784087319,
  "previousHash": "00007efdaf59c5140330d137f8c88d5b81d35339eca6fceb4543606b2acd97d0",
  "Hash": "0000ef797079904975e8ef1345e7544ca4f2a1ccd244381da2d9752b0069c437",
  "author": "main",
  "index": 27,
  "__v": 0
},{
  "_id": {
    "$oid": "5eff373c665b9000170a0ff8"
  },
  "authorize_id": {
    "$oid": "5ef647e4bc949a14dcdbec70"
  },
  "owner_id": {
    "$oid": "5edbe2bd4c411523d40f7135"
  },
  "box_id": {
    "$oid": "5edb651b5550a40068ab24a0"
  },
  "station_id": {
    "$oid": "5edb615fa6568321887ed060"
  },
  "limit": "3",
  "action": "revoke",
  "authorize_time": "Fri Jul 03 2020 20:47:32 GMT+0700 (Indochina Time)",
  "nonce": 19989,
  "timestamp": 1593784124193,
  "previousHash": "0000ef797079904975e8ef1345e7544ca4f2a1ccd244381da2d9752b0069c437",
  "Hash": "000005a69e6048466dbbcb19707d00ec8b92c590d51907b24f0706d4baada3b9",
  "author": "main",
  "index": 28,
  "__v": 0
},{
  "_id": {
    "$oid": "5eff37acf4a0e80017a6368e"
  },
  "authorize_id": {
    "$oid": "5ef647e4bc949a14dcdbec70"
  },
  "owner_id": {
    "$oid": "5edbe2bd4c411523d40f7135"
  },
  "box_id": {
    "$oid": "5edb651b5550a40068ab24a0"
  },
  "station_id": {
    "$oid": "5edb615fa6568321887ed060"
  },
  "limit": "4",
  "action": "authorize",
  "authorize_time": "Fri Jul 03 2020 20:50:24 GMT+0700 (Indochina Time)",
  "nonce": 13320,
  "timestamp": 1593784236127,
  "previousHash": "000005a69e6048466dbbcb19707d00ec8b92c590d51907b24f0706d4baada3b9",
  "Hash": "0000e0e5b9947d04433d0d6e64e3a4555c82dd56a31aaa5388d6c734ab33075d",
  "author": "main",
  "index": 29,
  "__v": 0
},{
  "_id": {
    "$oid": "5eff38c82c0c600017b3af5e"
  },
  "authorize_id": {
    "$oid": "5ef647e4bc949a14dcdbec70"
  },
  "owner_id": {
    "$oid": "5edbe2bd4c411523d40f7135"
  },
  "box_id": {
    "$oid": "5edb651b5550a40068ab249f"
  },
  "station_id": {
    "$oid": "5edb615fa6568321887ed060"
  },
  "limit": "2",
  "action": "authorize",
  "authorize_time": "Fri Jul 03 2020 20:55:04 GMT+0700 (Indochina Time)",
  "nonce": 82214,
  "timestamp": 1593784520572,
  "previousHash": "0000e0e5b9947d04433d0d6e64e3a4555c82dd56a31aaa5388d6c734ab33075d",
  "Hash": "00006b16d064615f4f8a07510621fb5d1b9ec01a5ac2c35c7c94b5c7520e2bc5",
  "author": "main",
  "index": 30,
  "__v": 0
},{
  "_id": {
    "$oid": "5eff38ee2c0c600017b3af5f"
  },
  "authorize_id": {
    "$oid": "5ef647e4bc949a14dcdbec70"
  },
  "owner_id": {
    "$oid": "5edbe2bd4c411523d40f7135"
  },
  "box_id": {
    "$oid": "5edb651b5550a40068ab24a0"
  },
  "station_id": {
    "$oid": "5edb615fa6568321887ed060"
  },
  "limit": "4",
  "action": "revoke",
  "authorize_time": "Fri Jul 03 2020 20:55:46 GMT+0700 (Indochina Time)",
  "nonce": 27130,
  "timestamp": 1593784558301,
  "previousHash": "00006b16d064615f4f8a07510621fb5d1b9ec01a5ac2c35c7c94b5c7520e2bc5",
  "Hash": "0000521c2196db65f29e133c4d24081d5330d10cd0a07b7ade484bcdd7920183",
  "author": "main",
  "index": 31,
  "__v": 0
},{
  "_id": {
    "$oid": "5eff39142c0c600017b3af60"
  },
  "authorize_id": {
    "$oid": "5ef647e4bc949a14dcdbec70"
  },
  "owner_id": {
    "$oid": "5edbe2bd4c411523d40f7135"
  },
  "box_id": {
    "$oid": "5edb651b5550a40068ab249f"
  },
  "station_id": {
    "$oid": "5edb615fa6568321887ed060"
  },
  "limit": "2",
  "action": "revoke",
  "authorize_time": "Fri Jul 03 2020 20:55:46 GMT+0700 (Indochina Time)",
  "nonce": 33464,
  "timestamp": 1593784596265,
  "previousHash": "0000521c2196db65f29e133c4d24081d5330d10cd0a07b7ade484bcdd7920183",
  "Hash": "00004144f1f24c8d3de67989bac3024e65893db22b2344c56528d9d998fb979f",
  "author": "main",
  "index": 32,
  "__v": 0
},{
  "_id": {
    "$oid": "5eff39392c0c600017b3af61"
  },
  "authorize_id": {
    "$oid": "5ef647e4bc949a14dcdbec70"
  },
  "owner_id": {
    "$oid": "5edbe2bd4c411523d40f7135"
  },
  "box_id": {
    "$oid": "5edb64e81c898b19f86fc06a"
  },
  "station_id": {
    "$oid": "5edb615fa6568321887ed05a"
  },
  "limit": "2",
  "action": "authorize",
  "authorize_time": "Fri Jul 03 2020 20:56:19 GMT+0700 (Indochina Time)",
  "nonce": 16125,
  "timestamp": 1593784633267,
  "previousHash": "00004144f1f24c8d3de67989bac3024e65893db22b2344c56528d9d998fb979f",
  "Hash": "0000307df46382257b7cbf728761dd1dfa8ab73aadd8570030e170549f82bcf8",
  "author": "main",
  "index": 33,
  "__v": 0
},{
  "_id": {
    "$oid": "5eff395d2c0c600017b3af62"
  },
  "authorize_id": {
    "$oid": "5ef647e4bc949a14dcdbec70"
  },
  "owner_id": {
    "$oid": "5edbe2bd4c411523d40f7135"
  },
  "box_id": {
    "$oid": "5edb64e81c898b19f86fc06a"
  },
  "station_id": {
    "$oid": "5edb615fa6568321887ed05a"
  },
  "limit": "2",
  "action": "revoke",
  "authorize_time": "Fri Jul 03 2020 20:57:34 GMT+0700 (Indochina Time)",
  "nonce": 2272,
  "timestamp": 1593784669695,
  "previousHash": "0000307df46382257b7cbf728761dd1dfa8ab73aadd8570030e170549f82bcf8",
  "Hash": "00005baa810c97bb1d2c5be18f4099ce74af36a7968a0e03af70548a4860fc94",
  "author": "main",
  "index": 34,
  "__v": 0
},{
  "_id": {
    "$oid": "5f0322344f6c370017244b85"
  },
  "authorize_id": {
    "$oid": "5ef647e4bc949a14dcdbec70"
  },
  "owner_id": {
    "$oid": "5edbe2bd4c411523d40f7135"
  },
  "box_id": {
    "$oid": "5edb651b5550a40068ab249f"
  },
  "station_id": {
    "$oid": "5edb615fa6568321887ed060"
  },
  "limit": "1",
  "action": "authorize",
  "authorize_time": "Mon Jul 06 2020 20:07:42 GMT+0700 (Indochina Time)",
  "nonce": 136922,
  "timestamp": 1594040884318,
  "previousHash": "00005baa810c97bb1d2c5be18f4099ce74af36a7968a0e03af70548a4860fc94",
  "Hash": "00004e3e0cebb16bc71ad9d10c87506189c659e84016b405e96b4e6f1a489627",
  "author": "main",
  "index": 35,
  "__v": 0
},{
  "_id": {
    "$oid": "5f03225d4f6c370017244b86"
  },
  "authorize_id": {
    "$oid": "5ef647e4bc949a14dcdbec70"
  },
  "owner_id": {
    "$oid": "5edbe2bd4c411523d40f7135"
  },
  "box_id": {
    "$oid": "5edb651b5550a40068ab249f"
  },
  "station_id": {
    "$oid": "5edb615fa6568321887ed060"
  },
  "limit": "1",
  "action": "revoke",
  "authorize_time": "Mon Jul 06 2020 20:08:16 GMT+0700 (Indochina Time)",
  "nonce": 62797,
  "timestamp": 1594040925091,
  "previousHash": "00004e3e0cebb16bc71ad9d10c87506189c659e84016b405e96b4e6f1a489627",
  "Hash": "0000979549633dd46b0dad1c11bc3ef59cca73f34106db6b758ccd3b703bfc18",
  "author": "main",
  "index": 36,
  "__v": 0
},{
  "_id": {
    "$oid": "5f06be59399860001749644f"
  },
  "authorize_id": {
    "$oid": "5ef647e4bc949a14dcdbec70"
  },
  "owner_id": {
    "$oid": "5edbe2bd4c411523d40f7135"
  },
  "box_id": {
    "$oid": "5edb64e81c898b19f86fc06a"
  },
  "station_id": {
    "$oid": "5edb615fa6568321887ed05a"
  },
  "limit": "unlimited",
  "action": "authorize",
  "authorize_time": "Thu Jul 09 2020 13:50:50 GMT+0700 (Indochina Time)",
  "nonce": 58942,
  "timestamp": 1594277465567,
  "previousHash": "0000979549633dd46b0dad1c11bc3ef59cca73f34106db6b758ccd3b703bfc18",
  "Hash": "0000bd83794b4a2cc63d4a03a4111eaa43200321ba9b7209ea601de381b9b1fe",
  "author": "main",
  "index": 37,
  "__v": 0
},{
  "_id": {
    "$oid": "5f06bf7c9bf7e00017f80f22"
  },
  "authorize_id": {
    "$oid": "5ef647e5bc949a14dcdbec71"
  },
  "owner_id": {
    "$oid": "5edbe2bd4c411523d40f7135"
  },
  "box_id": {
    "$oid": "5edb64e81c898b19f86fc06a"
  },
  "station_id": {
    "$oid": "5edb615fa6568321887ed05a"
  },
  "limit": "unlimited",
  "action": "authorize",
  "authorize_time": "Thu Jul 09 2020 13:55:44 GMT+0700 (Indochina Time)",
  "nonce": 18489,
  "timestamp": 1594277756871,
  "previousHash": "0000bd83794b4a2cc63d4a03a4111eaa43200321ba9b7209ea601de381b9b1fe",
  "Hash": "00007ead1dca3dda82ab2a69522c896e3ebf070e98f21f748124a7a3a477583c",
  "author": "main",
  "index": 38,
  "__v": 0
},{
  "_id": {
    "$oid": "5f06c8c0d0b09f0017e42ae0"
  },
  "authorize_id": {
    "$oid": "5ef647e5bc949a14dcdbec71"
  },
  "owner_id": {
    "$oid": "5edc8be05da01e2b046249fc"
  },
  "box_id": {
    "$oid": "5edb64ec1c898b19f86fc092"
  },
  "station_id": {
    "$oid": "5edb615fa6568321887ed05c"
  },
  "limit": "unlimited",
  "action": "authorize",
  "authorize_time": "Thu Jul 09 2020 14:35:12 GMT+0700 (Indochina Time)",
  "nonce": 102433,
  "timestamp": 1594280128678,
  "previousHash": "00007ead1dca3dda82ab2a69522c896e3ebf070e98f21f748124a7a3a477583c",
  "Hash": "000017093bd79a288f3649880141e951a5fe05a1156eaa9093362f25d85279d0",
  "author": "main",
  "index": 39,
  "__v": 0
},{
  "_id": {
    "$oid": "5f06df31caf354001711dc84"
  },
  "authorize_id": {
    "$oid": "5ef647e5bc949a14dcdbec71"
  },
  "owner_id": {
    "$oid": "5edbe2bd4c411523d40f7135"
  },
  "box_id": {
    "$oid": "5edb64e81c898b19f86fc06a"
  },
  "station_id": {
    "$oid": "5edb615fa6568321887ed05a"
  },
  "limit": "unlimited",
  "action": "revoke",
  "authorize_time": "Thu Jul 09 2020 16:10:52 GMT+0700 (Indochina Time)",
  "nonce": 115483,
  "timestamp": 1594285873775,
  "previousHash": "000017093bd79a288f3649880141e951a5fe05a1156eaa9093362f25d85279d0",
  "Hash": "0000f85397d9462ff2ed0d67839aa08397edd518e3b1adf08ad15808eaac9460",
  "author": "main",
  "index": 40,
  "__v": 0
},{
  "_id": {
    "$oid": "5f06e3775e1d8700170b863e"
  },
  "authorize_id": {
    "$oid": "5edc8be05da01e2b046249fc"
  },
  "owner_id": {
    "$oid": "5edbe2bd4c411523d40f7135"
  },
  "box_id": {
    "$oid": "5edb651b5550a40068ab249f"
  },
  "station_id": {
    "$oid": "5edb615fa6568321887ed060"
  },
  "limit": "2",
  "action": "authorize",
  "authorize_time": "Thu Jul 09 2020 16:29:15 GMT+0700 (Indochina Time)",
  "nonce": 5066,
  "timestamp": 1594286967085,
  "previousHash": "0000f85397d9462ff2ed0d67839aa08397edd518e3b1adf08ad15808eaac9460",
  "Hash": "0000b80052febf17f2ba778d4d1b96ef9b4cc8ac38aff2b6cc1972e7955ac466",
  "author": "main",
  "index": 41,
  "__v": 0
},{
  "_id": {
    "$oid": "5f06e6ea7191620017c1bda9"
  },
  "authorize_id": {
    "$oid": "5edc8be05da01e2b046249fc"
  },
  "owner_id": {
    "$oid": "5edbe2bd4c411523d40f7135"
  },
  "box_id": {
    "$oid": "5edb651b5550a40068ab249f"
  },
  "station_id": {
    "$oid": "5edb615fa6568321887ed060"
  },
  "limit": "2",
  "action": "revoke",
  "authorize_time": "Thu Jul 09 2020 16:43:57 GMT+0700 (Indochina Time)",
  "nonce": 42337,
  "timestamp": 1594287850079,
  "previousHash": "0000b80052febf17f2ba778d4d1b96ef9b4cc8ac38aff2b6cc1972e7955ac466",
  "Hash": "00004a7554cc269f18c6718f71f124905358e68f69a9a213fb147ba55e6dbba8",
  "author": "main",
  "index": 42,
  "__v": 0
},{
  "_id": {
    "$oid": "5f06e71a4ae3bc00174f589a"
  },
  "authorize_id": {
    "$oid": "5edc8be05da01e2b046249fc"
  },
  "owner_id": {
    "$oid": "5edbe2bd4c411523d40f7135"
  },
  "box_id": {
    "$oid": "5edb651b5550a40068ab249f"
  },
  "station_id": {
    "$oid": "5edb615fa6568321887ed060"
  },
  "limit": "unlimited",
  "action": "authorize",
  "authorize_time": "Thu Jul 09 2020 16:44:43 GMT+0700 (Indochina Time)",
  "nonce": 93346,
  "timestamp": 1594287898697,
  "previousHash": "00004a7554cc269f18c6718f71f124905358e68f69a9a213fb147ba55e6dbba8",
  "Hash": "0000bc0ce3c1af2a17c34550ea0b904073e953b3487e44727679763854319847",
  "author": "main",
  "index": 43,
  "__v": 0
},{
  "_id": {
    "$oid": "5f081ef80dc43e001761baec"
  },
  "authorize_id": {
    "$oid": "5edc8be05da01e2b046249fc"
  },
  "owner_id": {
    "$oid": "5edbe2bd4c411523d40f7135"
  },
  "box_id": {
    "$oid": "5edb64e81c898b19f86fc06a"
  },
  "station_id": {
    "$oid": "5edb615fa6568321887ed05a"
  },
  "limit": "unlimited",
  "action": "authorize",
  "authorize_time": "Fri Jul 10 2020 14:55:24 GMT+0700 (Indochina Time)",
  "nonce": 17976,
  "timestamp": 1594367736384,
  "previousHash": "0000bc0ce3c1af2a17c34550ea0b904073e953b3487e44727679763854319847",
  "Hash": "0000a4d9373cb7d40d08750a47aa40e8a1e8860dffe57d9c47c4b3fc793e36d1",
  "author": "main",
  "index": 44,
  "__v": 0
},{
  "_id": {
    "$oid": "5f081f27a7dd6300174a03c1"
  },
  "authorize_id": {
    "$oid": "5edc8be05da01e2b046249fc"
  },
  "owner_id": {
    "$oid": "5edbe2bd4c411523d40f7135"
  },
  "box_id": {
    "$oid": "5ef58f269163fd0598bd4d64"
  },
  "station_id": {
    "$oid": "5ef589bde7d51a102c1b8bbf"
  },
  "limit": "3",
  "action": "authorize",
  "authorize_time": "Fri Jul 10 2020 14:56:09 GMT+0700 (Indochina Time)",
  "nonce": 80964,
  "timestamp": 1594367783633,
  "previousHash": "0000a4d9373cb7d40d08750a47aa40e8a1e8860dffe57d9c47c4b3fc793e36d1",
  "Hash": "000065a8af6409040a4f5fb039e2fe34af2ba5431d1fea2f32512b014a6b4c59",
  "author": "main",
  "index": 45,
  "__v": 0
},{
  "_id": {
    "$oid": "5f081f57a7dd6300174a03c2"
  },
  "authorize_id": {
    "$oid": "5edc8be05da01e2b046249fc"
  },
  "owner_id": {
    "$oid": "5edbe2bd4c411523d40f7135"
  },
  "box_id": {
    "$oid": "5ef58f269163fd0598bd4d64"
  },
  "station_id": {
    "$oid": "5ef589bde7d51a102c1b8bbf"
  },
  "limit": "3",
  "action": "revoke",
  "authorize_time": "Fri Jul 10 2020 14:56:29 GMT+0700 (Indochina Time)",
  "nonce": 258842,
  "timestamp": 1594367831473,
  "previousHash": "000065a8af6409040a4f5fb039e2fe34af2ba5431d1fea2f32512b014a6b4c59",
  "Hash": "000051564342b1d5b2f3ce7c9c1d73b2452468bd4225db76bf4b947f4dcccc83",
  "author": "main",
  "index": 46,
  "__v": 0
},{
  "_id": {
    "$oid": "5f081f7ea7dd6300174a03c3"
  },
  "authorize_id": {
    "$oid": "5edc8be05da01e2b046249fc"
  },
  "owner_id": {
    "$oid": "5edbe2bd4c411523d40f7135"
  },
  "box_id": {
    "$oid": "5edb64e81c898b19f86fc06a"
  },
  "station_id": {
    "$oid": "5edb615fa6568321887ed05a"
  },
  "limit": "unlimited",
  "action": "revoke",
  "authorize_time": "Fri Jul 10 2020 14:56:42 GMT+0700 (Indochina Time)",
  "nonce": 73059,
  "timestamp": 1594367870968,
  "previousHash": "000051564342b1d5b2f3ce7c9c1d73b2452468bd4225db76bf4b947f4dcccc83",
  "Hash": "00002306dbb52b09bb51bc8d51c7d9b8cd53d8ed9ea287b148adabf7dffe95ed",
  "author": "main",
  "index": 47,
  "__v": 0
},{
  "_id": {
    "$oid": "5f084e94cd2425001765fe3a"
  },
  "authorize_id": {
    "$oid": "5edbe2bd4c411523d40f7135"
  },
  "owner_id": {
    "$oid": "5edc8be05da01e2b046249fc"
  },
  "box_id": {
    "$oid": "5edb651b5550a40068ab24a2"
  },
  "station_id": {
    "$oid": "5edb615fa6568321887ed060"
  },
  "limit": "2",
  "action": "authorize",
  "authorize_time": "Fri Jul 10 2020 18:18:16 GMT+0700 (Indochina Time)",
  "nonce": 212087,
  "timestamp": 1594379924620,
  "previousHash": "00002306dbb52b09bb51bc8d51c7d9b8cd53d8ed9ea287b148adabf7dffe95ed",
  "Hash": "0000b045a6066f06499353ca05b03903bdab79e070a6a0449057ec807576b8c7",
  "author": "main",
  "index": 48,
  "__v": 0
},{
  "_id": {
    "$oid": "5f084efddeaf0d0017e981c0"
  },
  "authorize_id": {
    "$oid": "5edc8be05da01e2b046249fc"
  },
  "owner_id": {
    "$oid": "5edbe2bd4c411523d40f7135"
  },
  "box_id": {
    "$oid": "5edb651b5550a40068ab249f"
  },
  "station_id": {
    "$oid": "5edb615fa6568321887ed060"
  },
  "limit": "2",
  "action": "authorize",
  "authorize_time": "Fri Jul 10 2020 18:20:15 GMT+0700 (Indochina Time)",
  "nonce": 11815,
  "timestamp": 1594380029133,
  "previousHash": "0000b045a6066f06499353ca05b03903bdab79e070a6a0449057ec807576b8c7",
  "Hash": "0000effb8da8c5a6b25522012224123e840ec8f13de6c2c2b0f4b4576abf824f",
  "author": "main",
  "index": 49,
  "__v": 0
},{
  "_id": {
    "$oid": "5f091fb4e722940017c0d6f4"
  },
  "authorize_id": {
    "$oid": "5edc8be05da01e2b046249fc"
  },
  "owner_id": {
    "$oid": "5edbe2bd4c411523d40f7135"
  },
  "box_id": {
    "$oid": "5edb64e81c898b19f86fc06a"
  },
  "station_id": {
    "$oid": "5edb615fa6568321887ed05a"
  },
  "limit": "unlimited",
  "action": "authorize",
  "authorize_time": "Sat Jul 11 2020 09:10:45 GMT+0700 (Indochina Time)",
  "nonce": 36063,
  "timestamp": 1594433460014,
  "previousHash": "0000effb8da8c5a6b25522012224123e840ec8f13de6c2c2b0f4b4576abf824f",
  "Hash": "000068e2389656cdda911c1e7648d45479983aae99f327b024a5872178d8d61f",
  "author": "main",
  "index": 50,
  "__v": 0
},{
  "_id": {
    "$oid": "5f09257e71e5ab0017506dc1"
  },
  "authorize_id": {
    "$oid": "5edc8be05da01e2b046249fc"
  },
  "owner_id": {
    "$oid": "5edbe2bd4c411523d40f7135"
  },
  "box_id": {
    "$oid": "5edb64e91c898b19f86fc06b"
  },
  "station_id": {
    "$oid": "5edb615fa6568321887ed05a"
  },
  "limit": "unlimited",
  "action": "authorize",
  "authorize_time": "Sat Jul 11 2020 09:35:14 GMT+0700 (Indochina Time)",
  "nonce": 20012,
  "timestamp": 1594434933305,
  "previousHash": "000068e2389656cdda911c1e7648d45479983aae99f327b024a5872178d8d61f",
  "Hash": "00007fcdc045384872d839384706182e20de4c80c31c3d06b7373f2db013deb6",
  "author": "node2",
  "index": 51,
  "__v": 0
},{
  "_id": {
    "$oid": "5f157d00ed1c8d0017c7ac71"
  },
  "authorize_id": {
    "$oid": "5edbe2bd4c411523d40f7135"
  },
  "owner_id": {
    "$oid": "5edc8be05da01e2b046249fc"
  },
  "box_id": {
    "$oid": "5edb651b5550a40068ab24a0"
  },
  "station_id": {
    "$oid": "5edb615fa6568321887ed060"
  },
  "limit": "unlimited",
  "action": "authorize",
  "authorize_time": "Mon Jul 20 2020 18:16:03 GMT+0700 (Indochina Time)",
  "nonce": 40163,
  "timestamp": 1595243776573,
  "previousHash": "00007fcdc045384872d839384706182e20de4c80c31c3d06b7373f2db013deb6",
  "Hash": "00000a0d4fa7cf9b8d680b1a80fb2d16dd898113908f8f194400ecb8560c0b67",
  "author": "main",
  "index": 52,
  "__v": 0
},{
  "_id": {
    "$oid": "5f16bc129ad9bd00171d9cd9"
  },
  "authorize_id": {
    "$oid": "5edbe2bd4c411523d40f7135"
  },
  "owner_id": {
    "$oid": "5edc8be05da01e2b046249fc"
  },
  "box_id": {
    "$oid": "5edb651b5550a40068ab24a0"
  },
  "station_id": {
    "$oid": "5edb615fa6568321887ed060"
  },
  "limit": "unlimited",
  "action": "authorize",
  "authorize_time": "Tue Jul 21 2020 16:57:26 GMT+0700 (Indochina Time)",
  "nonce": 12290,
  "timestamp": 1595325458606,
  "previousHash": "00000a0d4fa7cf9b8d680b1a80fb2d16dd898113908f8f194400ecb8560c0b67",
  "Hash": "000047167c3d339bf1921a94f526f075225f7ff5d7f2e048393221975dbbc680",
  "author": "main",
  "index": 53,
  "__v": 0
},{
  "_id": {
    "$oid": "5f17a790a87b3c0017c7e5ee"
  },
  "authorize_id": {
    "$oid": "5edbe2bd4c411523d40f7135"
  },
  "owner_id": {
    "$oid": "5edc8be05da01e2b046249fc"
  },
  "box_id": {
    "$oid": "5edb651b5550a40068ab24a0"
  },
  "station_id": {
    "$oid": "5edb615fa6568321887ed060"
  },
  "limit": "5",
  "action": "authorize",
  "authorize_time": "Wed Jul 22 2020 09:41:54 GMT+0700 (Indochina Time)",
  "nonce": 314851,
  "timestamp": 1595385744386,
  "previousHash": "000047167c3d339bf1921a94f526f075225f7ff5d7f2e048393221975dbbc680",
  "Hash": "0000ea73c759598640b0680f32b88fccfa6f7c2cc648f991330dba6b33474e8b",
  "author": "main",
  "index": 54,
  "__v": 0
},{
  "_id": {
    "$oid": "5f26a05884941400172a9c4b"
  },
  "authorize_id": {
    "$oid": "5edbe2bd4c411523d40f7135"
  },
  "owner_id": {
    "$oid": "5edc8be05da01e2b046249fc"
  },
  "box_id": {
    "$oid": "5edb651b5550a40068ab24a0"
  },
  "station_id": {
    "$oid": "5edb615fa6568321887ed060"
  },
  "limit": "5",
  "action": "revoke",
  "authorize_time": "Sun Aug 02 2020 18:14:46 GMT+0700 (Indochina Time)",
  "nonce": 140065,
  "timestamp": 1596366936542,
  "previousHash": "0000ea73c759598640b0680f32b88fccfa6f7c2cc648f991330dba6b33474e8b",
  "Hash": "000060667ab759111e62d96a7fb41e90b2a2abdb3eb7dc6a3807b0702be830f5",
  "author": "main",
  "index": 55,
  "__v": 0
},{
  "_id": {
    "$oid": "5f26b3ba84941400172a9c4c"
  },
  "authorize_id": {
    "$oid": "5edbe2bd4c411523d40f7135"
  },
  "owner_id": {
    "$oid": "5edc8be05da01e2b046249fc"
  },
  "box_id": {
    "$oid": "5edb651b5550a40068ab24a0"
  },
  "station_id": {
    "$oid": "5edb615fa6568321887ed060"
  },
  "limit": "unlimited",
  "action": "authorize",
  "authorize_time": "Sun Aug 02 2020 18:28:42 GMT+0700 (Indochina Time)",
  "nonce": 4190,
  "timestamp": 1596371898506,
  "previousHash": "000060667ab759111e62d96a7fb41e90b2a2abdb3eb7dc6a3807b0702be830f5",
  "Hash": "0000625d93bf5351af0c344a3686ce47093c7bcf325dfa1eee68f607ca00bea1",
  "author": "main",
  "index": 56,
  "__v": 0
},{
  "_id": {
    "$oid": "5f26b3e284941400172a9c4d"
  },
  "authorize_id": {
    "$oid": "5edbe2bd4c411523d40f7135"
  },
  "owner_id": {
    "$oid": "5edc8be05da01e2b046249fc"
  },
  "box_id": {
    "$oid": "5edb651b5550a40068ab24a0"
  },
  "station_id": {
    "$oid": "5edb615fa6568321887ed060"
  },
  "limit": "unlimited",
  "action": "authorize",
  "authorize_time": "Sun Aug 02 2020 19:09:48 GMT+0700 (Indochina Time)",
  "nonce": 26999,
  "timestamp": 1596371938747,
  "previousHash": "0000625d93bf5351af0c344a3686ce47093c7bcf325dfa1eee68f607ca00bea1",
  "Hash": "00000927e962a7ca1b89e6f17ff6b7d9e801ccfa06913a03d534fff8cc753348",
  "author": "main",
  "index": 57,
  "__v": 0
},{
  "_id": {
    "$oid": "5f26b53bbd71ab0017901cc2"
  },
  "authorize_id": {
    "$oid": "5edc8be05da01e2b046249fc"
  },
  "owner_id": {
    "$oid": "5edbe2bd4c411523d40f7135"
  },
  "box_id": {
    "$oid": "5edb651b5550a40068ab249f"
  },
  "station_id": {
    "$oid": "5edb615fa6568321887ed060"
  },
  "limit": "unlimited",
  "action": "authorize",
  "authorize_time": "Sun Aug 02 2020 19:44:23 GMT+0700 (Indochina Time)",
  "nonce": 123679,
  "timestamp": 1596372283011,
  "previousHash": "00000927e962a7ca1b89e6f17ff6b7d9e801ccfa06913a03d534fff8cc753348",
  "Hash": "000087fdd8993612de825121dfaf84b9f91713ffdc30e869a411eb2b2af99088",
  "author": "main",
  "index": 58,
  "__v": 0
},{
  "_id": {
    "$oid": "5f27d264aa32ee0017db3284"
  },
  "authorize_id": {
    "$oid": "5edbe2bd4c411523d40f7135"
  },
  "owner_id": {
    "$oid": "5edc8be05da01e2b046249fc"
  },
  "box_id": {
    "$oid": "5edb651b5550a40068ab24a0"
  },
  "station_id": {
    "$oid": "5edb615fa6568321887ed060"
  },
  "limit": "unlimited",
  "action": "authorize",
  "authorize_time": "Mon Aug 03 2020 16:01:06 GMT+0700 (Indochina Time)",
  "nonce": 32875,
  "timestamp": 1596445284536,
  "previousHash": "000087fdd8993612de825121dfaf84b9f91713ffdc30e869a411eb2b2af99088",
  "Hash": "00004287956b723681893e6f4ee7129566a9f8468bc13ffcdeb4c11c3419d131",
  "author": "main",
  "index": 59,
  "__v": 0
},{
  "_id": {
    "$oid": "5f27d68efa16e300171254c9"
  },
  "authorize_id": {
    "$oid": "5edbe2bd4c411523d40f7135"
  },
  "owner_id": {
    "$oid": "5edc8be05da01e2b046249fc"
  },
  "box_id": {
    "$oid": "5edb651b5550a40068ab24a0"
  },
  "station_id": {
    "$oid": "5edb615fa6568321887ed060"
  },
  "limit": "unlimited",
  "action": "authorize",
  "authorize_time": "Mon Aug 03 2020 16:18:52 GMT+0700 (Indochina Time)",
  "nonce": 41628,
  "timestamp": 1596446350851,
  "previousHash": "00004287956b723681893e6f4ee7129566a9f8468bc13ffcdeb4c11c3419d131",
  "Hash": "000095532cd4dd68d47bbf562be2044254b83effac871d9cd41c431e3c5b49f4",
  "author": "main",
  "index": 60,
  "__v": 0
},{
  "_id": {
    "$oid": "5f2ab935fd3d2e0017de5d17"
  },
  "authorize_id": {
    "$oid": "5edbe2bd4c411523d40f7135"
  },
  "owner_id": {
    "$oid": "5edc8be05da01e2b046249fc"
  },
  "box_id": {
    "$oid": "5edb651b5550a40068ab24a0"
  },
  "station_id": {
    "$oid": "5edb615fa6568321887ed060"
  },
  "limit": "unlimited",
  "action": "authorize",
  "authorize_time": "Wed Aug 05 2020 20:50:22 GMT+0700 (Indochina Time)",
  "nonce": 132886,
  "timestamp": 1596635445887,
  "previousHash": "000095532cd4dd68d47bbf562be2044254b83effac871d9cd41c431e3c5b49f4",
  "Hash": "00001106bbdcadfab0131934af3a4cd64597e24664b11d6b3a2ebcf8e4bde15d",
  "author": "main",
  "index": 61,
  "__v": 0
},{
  "_id": {
    "$oid": "5f2abf1fdb9ef2001750079b"
  },
  "authorize_id": {
    "$oid": "5edbe2bd4c411523d40f7135"
  },
  "owner_id": {
    "$oid": "5edc8be05da01e2b046249fc"
  },
  "box_id": {
    "$oid": "5edb651b5550a40068ab24a0"
  },
  "station_id": {
    "$oid": "5edb615fa6568321887ed060"
  },
  "limit": "unlimited",
  "action": "authorize",
  "authorize_time": "Wed Aug 05 2020 21:15:41 GMT+0700 (Indochina Time)",
  "nonce": 25206,
  "timestamp": 1596636959253,
  "previousHash": "00001106bbdcadfab0131934af3a4cd64597e24664b11d6b3a2ebcf8e4bde15d",
  "Hash": "00004892be868d9b157ea2f1b474e719e0ee63beee5a96b524b944388c85d1ba",
  "author": "main",
  "index": 62,
  "__v": 0
},{
  "_id": {
    "$oid": "5f2ac108e709ca001786cdec"
  },
  "authorize_id": {
    "$oid": "5edbe2bd4c411523d40f7135"
  },
  "owner_id": {
    "$oid": "5edc8be05da01e2b046249fc"
  },
  "box_id": {
    "$oid": "5edb651b5550a40068ab24a0"
  },
  "station_id": {
    "$oid": "5edb615fa6568321887ed060"
  },
  "limit": "unlimited",
  "action": "authorize",
  "authorize_time": "Wed Aug 05 2020 21:23:48 GMT+0700 (Indochina Time)",
  "nonce": 6450,
  "timestamp": 1596637447516,
  "previousHash": "00004892be868d9b157ea2f1b474e719e0ee63beee5a96b524b944388c85d1ba",
  "Hash": "0000734f07b5a6ab95a7ebf2e03e879b346e4e84379860603484a5f15d2ed7d7",
  "author": "node2",
  "index": 63,
  "__v": 0
},{
  "_id": {
    "$oid": "5f2b50bf235c3b0017777ba5"
  },
  "authorize_id": {
    "$oid": "5edbe2bd4c411523d40f7135"
  },
  "owner_id": {
    "$oid": "5edc8be05da01e2b046249fc"
  },
  "box_id": {
    "$oid": "5ef58fc33eb7e537b8cffdc1"
  },
  "station_id": {
    "$oid": "5ef58ae33c8d922b4cc6d6be"
  },
  "limit": "unlimited",
  "action": "authorize",
  "authorize_time": "Thu Aug 06 2020 07:37:00 GMT+0700 (Indochina Time)",
  "nonce": 44033,
  "timestamp": 1596674239678,
  "previousHash": "0000734f07b5a6ab95a7ebf2e03e879b346e4e84379860603484a5f15d2ed7d7",
  "Hash": "000099f4d9a60904aeab76c1085f04993ab3e35870089c139051f6e27ca97c0e",
  "author": "main",
  "index": 64,
  "__v": 0
},{
  "_id": {
    "$oid": "5f2b6fc661bcb70017dd38ab"
  },
  "authorize_id": {
    "$oid": "5edbe2bd4c411523d40f7135"
  },
  "owner_id": {
    "$oid": "5edc8be05da01e2b046249fc"
  },
  "box_id": {
    "$oid": "5edb651b5550a40068ab24a0"
  },
  "station_id": {
    "$oid": "5edb615fa6568321887ed060"
  },
  "limit": "unlimited",
  "action": "authorize",
  "authorize_time": "Thu Aug 06 2020 09:48:50 GMT+0700 (Indochina Time)",
  "nonce": 127736,
  "timestamp": 1596682182345,
  "previousHash": "000099f4d9a60904aeab76c1085f04993ab3e35870089c139051f6e27ca97c0e",
  "Hash": "0000680318f0adcd9242f5ef6d49fe9af8accad71eb0b6080a2492c4879107dd",
  "author": "main",
  "index": 65,
  "__v": 0
},{
  "_id": {
    "$oid": "5f2b72985962350017e8fade"
  },
  "authorize_id": {
    "$oid": "5edbe2bd4c411523d40f7135"
  },
  "owner_id": {
    "$oid": "5edc8be05da01e2b046249fc"
  },
  "box_id": {
    "$oid": "5edb651b5550a40068ab24a1"
  },
  "station_id": {
    "$oid": "5edb615fa6568321887ed060"
  },
  "limit": "0",
  "action": "authorize",
  "authorize_time": "Thu Aug 06 2020 10:01:27 GMT+0700 (Indochina Time)",
  "nonce": 18199,
  "timestamp": 1596682904604,
  "previousHash": "0000680318f0adcd9242f5ef6d49fe9af8accad71eb0b6080a2492c4879107dd",
  "Hash": "0000f3d5245cc5ea327ba9b86b9d2a730069f092792cfdae80854afc3c321c25",
  "author": "main",
  "index": 66,
  "__v": 0
},{
  "_id": {
    "$oid": "5f2b7cb85f1e0f0017bf0354"
  },
  "authorize_id": {
    "$oid": "5edbe2bd4c411523d40f7135"
  },
  "owner_id": {
    "$oid": "5edc8be05da01e2b046249fc"
  },
  "box_id": {
    "$oid": "5ef58fc33eb7e537b8cffdc1"
  },
  "station_id": {
    "$oid": "5ef58ae33c8d922b4cc6d6be"
  },
  "limit": "unlimited",
  "action": "revoke",
  "authorize_time": "Thu Aug 06 2020 10:44:39 GMT+0700 (Indochina Time)",
  "nonce": 5378,
  "timestamp": 1596685496125,
  "previousHash": "0000f3d5245cc5ea327ba9b86b9d2a730069f092792cfdae80854afc3c321c25",
  "Hash": "000071e583f6bac4530e760272649f3fe8d4d3c2e2acd1b7c153c068763e8a33",
  "author": "main",
  "index": 67,
  "__v": 0
},{
  "_id": {
    "$oid": "5f2b7ce45f1e0f0017bf0355"
  },
  "authorize_id": {
    "$oid": "5edbe2bd4c411523d40f7135"
  },
  "owner_id": {
    "$oid": "5edc8be05da01e2b046249fc"
  },
  "box_id": {
    "$oid": "5edb651b5550a40068ab24a0"
  },
  "station_id": {
    "$oid": "5edb615fa6568321887ed060"
  },
  "limit": "unlimited",
  "action": "revoke",
  "authorize_time": "Thu Aug 06 2020 10:44:39 GMT+0700 (Indochina Time)",
  "nonce": 40945,
  "timestamp": 1596685540749,
  "previousHash": "000071e583f6bac4530e760272649f3fe8d4d3c2e2acd1b7c153c068763e8a33",
  "Hash": "000078ef8d718efcd5b92b9a7f122c51d3fece01c379472a02b99f22e97133bb",
  "author": "main",
  "index": 68,
  "__v": 0
},{
  "_id": {
    "$oid": "5f2b7d125f1e0f0017bf0356"
  },
  "authorize_id": {
    "$oid": "5edbe2bd4c411523d40f7135"
  },
  "owner_id": {
    "$oid": "5edc8be05da01e2b046249fc"
  },
  "box_id": {
    "$oid": "5edb651b5550a40068ab24a1"
  },
  "station_id": {
    "$oid": "5edb615fa6568321887ed060"
  },
  "limit": "0",
  "action": "revoke",
  "authorize_time": "Thu Aug 06 2020 10:44:39 GMT+0700 (Indochina Time)",
  "nonce": 104269,
  "timestamp": 1596685586410,
  "previousHash": "000078ef8d718efcd5b92b9a7f122c51d3fece01c379472a02b99f22e97133bb",
  "Hash": "0000b7a85d80dded261a24a9344dcee36383aa3b0ef79d2aa02b5407cc8468aa",
  "author": "main",
  "index": 69,
  "__v": 0
},{
  "_id": {
    "$oid": "5f2b7d3c5f1e0f0017bf0357"
  },
  "authorize_id": {
    "$oid": "5edbe2bd4c411523d40f7135"
  },
  "owner_id": {
    "$oid": "5edc8be05da01e2b046249fc"
  },
  "box_id": {
    "$oid": "5edb651b5550a40068ab24a0"
  },
  "station_id": {
    "$oid": "5edb615fa6568321887ed060"
  },
  "limit": "unlimited",
  "action": "authorize",
  "authorize_time": "Thu Aug 06 2020 10:45:06 GMT+0700 (Indochina Time)",
  "nonce": 22414,
  "timestamp": 1596685628789,
  "previousHash": "0000b7a85d80dded261a24a9344dcee36383aa3b0ef79d2aa02b5407cc8468aa",
  "Hash": "000094406b2d3858e0510f621186eb16ad95688add98b72724baa0b994fcbe5a",
  "author": "main",
  "index": 70,
  "__v": 0
}]