[{
  "_id": {
    "$oid": "5ef22cb7e9b02e3d347eacea"
  },
  "price_oneHour": 1000,
  "price_oneDay": 4000,
  "price_oneMonth": 16000,
  "__v": 0
},{
  "_id": {
    "$oid": "5ef22cb7e9b02e3d347eaceb"
  },
  "price_oneHour": 1000,
  "price_oneDay": 4000,
  "price_oneMonth": 16000,
  "__v": 0
},{
  "_id": {
    "$oid": "5ef22cb7e9b02e3d347eacec"
  },
  "price_oneHour": 1000,
  "price_oneDay": 4000,
  "price_oneMonth": 16000,
  "__v": 0
},{
  "_id": {
    "$oid": "5ef22cb7e9b02e3d347eaced"
  },
  "price_oneHour": 1000,
  "price_oneDay": 4000,
  "price_oneMonth": 16000,
  "__v": 0
},{
  "_id": {
    "$oid": "5ef22cb7e9b02e3d347eacee"
  },
  "price_oneHour": 1000,
  "price_oneDay": 4000,
  "price_oneMonth": 16000,
  "__v": 0
},{
  "_id": {
    "$oid": "5ef22cb7e9b02e3d347eacef"
  },
  "price_oneHour": 1000,
  "price_oneDay": 4000,
  "price_oneMonth": 16000,
  "__v": 0
},{
  "_id": {
    "$oid": "5ef22cb7e9b02e3d347eacf0"
  },
  "price_oneHour": 1000,
  "price_oneDay": 4000,
  "price_oneMonth": 16000,
  "__v": 0
},{
  "_id": {
    "$oid": "5ef58225682ef41eecbd7f8f"
  },
  "price_oneHour": 1000,
  "price_oneDay": 4000,
  "price_oneMonth": 16000,
  "__v": 0
},{
  "_id": {
    "$oid": "5ef58e61682ef41eecbd7f90"
  },
  "price_oneHour": 1000,
  "price_oneDay": 4000,
  "price_oneMonth": 16000,
  "__v": 0
},{
  "_id": {
    "$oid": "5ef58e65682ef41eecbd7f91"
  },
  "price_oneHour": 1000,
  "price_oneDay": 4000,
  "price_oneMonth": 16000,
  "__v": 0
},{
  "_id": {
    "$oid": "5ef58e68682ef41eecbd7f92"
  },
  "price_oneHour": 1000,
  "price_oneDay": 4000,
  "price_oneMonth": 16000,
  "__v": 0
}]